{
    "photos": {
        "page": 1,
        "pages": 6876,
        "perpage": 30,
        "total": 206280,
        "photo": [
            {
                "id": "51687369249",
                "owner": "27223455@N02",
                "secret": "ae2ab96200",
                "server": "65535",
                "farm": 66,
                "title": "Cats",
                "ispublic": 1,
                "isfriend": 0,
                "isfamily": 0
            },
            {
                "id": "51687360779",
                "owner": "73118068@N00",
                "secret": "358b679676",
                "server": "65535",
                "farm": 66,
                "title": "Cat's Paw By William Mastrosimone_6891185406_o",
                "ispublic": 1,
                "isfriend": 0,
                "isfamily": 0
            },
            {
                "id": "51685892497",
                "owner": "73118068@N00",
                "secret": "530bdb375a",
                "server": "65535",
                "farm": 66,
                "title": "Cat's Paw By William Mastrosimone_6891186910_o",
                "ispublic": 1,
                "isfriend": 0,
                "isfamily": 0
            },
            {
                "id": "51686953748",
                "owner": "73118068@N00",
                "secret": "c5f231291c",
                "server": "65535",
                "farm": 66,
                "title": "Cat's Paw By William Mastrosimone_6891187516_o",
                "ispublic": 1,
                "isfriend": 0,
                "isfamily": 0
            },
            {
                "id": "51686678626",
                "owner": "73118068@N00",
                "secret": "96b475dfe0",
                "server": "65535",
                "farm": 66,
                "title": "Cat's Paw By William Mastrosimone_6891189006_o",
                "ispublic": 1,
                "isfriend": 0,
                "isfamily": 0
            },
            {
                "id": "51686953553",
                "owner": "73118068@N00",
                "secret": "9da637c049",
                "server": "65535",
                "farm": 66,
                "title": "Cat's Paw By William Mastrosimone_6891190474_o",
                "ispublic": 1,
                "isfriend": 0,
                "isfamily": 0
            },
            {
                "id": "51686953453",
                "owner": "73118068@N00",
                "secret": "1d46a3a635",
                "server": "65535",
                "farm": 66,
                "title": "Cat's Paw By William Mastrosimone_6891191436_o",
                "ispublic": 1,
                "isfriend": 0,
                "isfamily": 0
            },
            {
                "id": "51685892047",
                "owner": "73118068@N00",
                "secret": "1643af3ddf",
                "server": "65535",
                "farm": 66,
                "title": "Cat's Paw By William Mastrosimone_6891196800_o",
                "ispublic": 1,
                "isfriend": 0,
                "isfamily": 0
            },
            {
                "id": "51686953268",
                "owner": "73118068@N00",
                "secret": "148bc96353",
                "server": "65535",
                "farm": 66,
                "title": "Cat's Paw By William Mastrosimone_6891197716_o",
                "ispublic": 1,
                "isfriend": 0,
                "isfamily": 0
            },
            {
                "id": "51687582885",
                "owner": "73118068@N00",
                "secret": "69818bf8f4",
                "server": "65535",
                "farm": 66,
                "title": "Cat's Paw By William Mastrosimone_6891198628_o",
                "ispublic": 1,
                "isfriend": 0,
                "isfamily": 0
            },
            {
                "id": "51687360094",
                "owner": "73118068@N00",
                "secret": "c63b3be264",
                "server": "65535",
                "farm": 66,
                "title": "Cat's Paw By William Mastrosimone_6891200128_o",
                "ispublic": 1,
                "isfriend": 0,
                "isfamily": 0
            },
            {
                "id": "51685891647",
                "owner": "73118068@N00",
                "secret": "e5ef0a37d4",
                "server": "65535",
                "farm": 66,
                "title": "Cat's Paw By William Mastrosimone_6891202550_o",
                "ispublic": 1,
                "isfriend": 0,
                "isfamily": 0
            },
            {
                "id": "51687582590",
                "owner": "73118068@N00",
                "secret": "5724cd5e07",
                "server": "65535",
                "farm": 66,
                "title": "Cat's Paw By William Mastrosimone_6891203486_o",
                "ispublic": 1,
                "isfriend": 0,
                "isfamily": 0
            },
            {
                "id": "51687582475",
                "owner": "73118068@N00",
                "secret": "e9fd0c81ce",
                "server": "65535",
                "farm": 66,
                "title": "Cat's Paw By William Mastrosimone_6891206158_o",
                "ispublic": 1,
                "isfriend": 0,
                "isfamily": 0
            },
            {
                "id": "51685891357",
                "owner": "73118068@N00",
                "secret": "1eabaa9c39",
                "server": "65535",
                "farm": 66,
                "title": "Cat's Paw By William Mastrosimone_6891210910_o",
                "ispublic": 1,
                "isfriend": 0,
                "isfamily": 0
            },
            {
                "id": "51685891272",
                "owner": "73118068@N00",
                "secret": "b4295e39f3",
                "server": "65535",
                "farm": 66,
                "title": "Cat's Paw By William Mastrosimone_6891211778_o",
                "ispublic": 1,
                "isfriend": 0,
                "isfamily": 0
            },
            {
                "id": "51687582160",
                "owner": "73118068@N00",
                "secret": "304205b3b5",
                "server": "65535",
                "farm": 66,
                "title": "Cat's Paw By William Mastrosimone_6891212602_o",
                "ispublic": 1,
                "isfriend": 0,
                "isfamily": 0
            },
            {
                "id": "51687582110",
                "owner": "73118068@N00",
                "secret": "54df1113cc",
                "server": "65535",
                "farm": 66,
                "title": "Cat's Paw By William Mastrosimone_6891213658_o",
                "ispublic": 1,
                "isfriend": 0,
                "isfamily": 0
            },
            {
                "id": "51685891022",
                "owner": "73118068@N00",
                "secret": "53f2c215df",
                "server": "65535",
                "farm": 66,
                "title": "Cat's Paw By William Mastrosimone_7037282723_o",
                "ispublic": 1,
                "isfriend": 0,
                "isfamily": 0
            },
            {
                "id": "51687359324",
                "owner": "73118068@N00",
                "secret": "4d6241f2cd",
                "server": "65535",
                "farm": 66,
                "title": "Cat's Paw By William Mastrosimone_7037280575_o",
                "ispublic": 1,
                "isfriend": 0,
                "isfamily": 0
            },
            {
                "id": "51687359259",
                "owner": "73118068@N00",
                "secret": "9525cdb792",
                "server": "65535",
                "farm": 66,
                "title": "Cat's Paw By William Mastrosimone_7037284081_o",
                "ispublic": 1,
                "isfriend": 0,
                "isfamily": 0
            },
            {
                "id": "51687359149",
                "owner": "73118068@N00",
                "secret": "397cc96288",
                "server": "65535",
                "farm": 66,
                "title": "Cat's Paw By William Mastrosimone_7037286699_o",
                "ispublic": 1,
                "isfriend": 0,
                "isfamily": 0
            },
            {
                "id": "51686677041",
                "owner": "73118068@N00",
                "secret": "33bfd4f462",
                "server": "65535",
                "farm": 66,
                "title": "Cat's Paw By William Mastrosimone_7037287603_o",
                "ispublic": 1,
                "isfriend": 0,
                "isfamily": 0
            },
            {
                "id": "51685890712",
                "owner": "73118068@N00",
                "secret": "0288c1be5a",
                "server": "65535",
                "farm": 66,
                "title": "Cat's Paw By William Mastrosimone_7037288459_o",
                "ispublic": 1,
                "isfriend": 0,
                "isfamily": 0
            },
            {
                "id": "51686676861",
                "owner": "73118068@N00",
                "secret": "5ed59cf5a1",
                "server": "65535",
                "farm": 66,
                "title": "Cat's Paw By William Mastrosimone_7037289425_o",
                "ispublic": 1,
                "isfriend": 0,
                "isfamily": 0
            },
            {
                "id": "51686676786",
                "owner": "73118068@N00",
                "secret": "80b19a8cab",
                "server": "65535",
                "farm": 66,
                "title": "Cat's Paw By William Mastrosimone_7037290339_o",
                "ispublic": 1,
                "isfriend": 0,
                "isfamily": 0
            },
            {
                "id": "51686676711",
                "owner": "73118068@N00",
                "secret": "934212b1f6",
                "server": "65535",
                "farm": 66,
                "title": "Cat's Paw By William Mastrosimone_7037295081_o",
                "ispublic": 1,
                "isfriend": 0,
                "isfamily": 0
            },
            {
                "id": "51685890332",
                "owner": "73118068@N00",
                "secret": "52a34d49b0",
                "server": "65535",
                "farm": 66,
                "title": "Cat's Paw By William Mastrosimone_7037295857_o",
                "ispublic": 1,
                "isfriend": 0,
                "isfamily": 0
            },
            {
                "id": "51685890247",
                "owner": "73118068@N00",
                "secret": "977c6aa53a",
                "server": "65535",
                "farm": 66,
                "title": "Cat's Paw By William Mastrosimone_7037298691_o",
                "ispublic": 1,
                "isfriend": 0,
                "isfamily": 0
            },
            {
                "id": "51685890182",
                "owner": "73118068@N00",
                "secret": "abe1d61a7b",
                "server": "65535",
                "farm": 66,
                "title": "Cat's Paw By William Mastrosimone_7037299499_o",
                "ispublic": 1,
                "isfriend": 0,
                "isfamily": 0
            }
        ]
    },
    "stat": "ok"
}
